Aggregate antibiotic usage data by AWaRe group — awr_aggregate • abxaware
…
#> Aggregating data using the "dk" AWaRe classification
#> # A tibble: 79 × 6
#>    month        total reserve   watch  access other
#>    <date>       <dbl>   <dbl>   <dbl>   <dbl> <dbl>
#>  1 2015-01-01 276997.  15936. 125162. 135863.    35
#>  2 2015-02-01 288550.  16781. 132353. 139401.    15
#>  3 2015-03-01 396840.  19708. 181769. 195318.    45
#>  4 2015-04-01 260539.  15093. 118676. 126705.    65
#>  5 2015-05-01 275710.  16959. 123166. 135570.    15
#>  6 2015-06-01 312190.  17329. 133961. 160845.    55
#>  7 2015-07-01 293852.  16140. 124887. 152765.    60
#>  8 2015-08-01 281087.  17058. 119319. 144706.     5
#>  9 2015-09-01 304548.  12741. 131995. 159767.    45
#> 10 2015-10-01 307043.   9933. 138503. 158571.    35
#> # … with 69 more rows
awr_aggregate(abx_sales, atc, ddd, month, region)

#> Aggregating data using the "dk" AWaRe classification
#> # A tibble: 395 × 7
#>    month      region        total reserve  watch access other
#>    <date>     <chr>         <dbl>   <dbl>  <dbl>  <dbl> <dbl>
#>  1 2015-01-01 Hovedstaden  98537.   9311. 39442. 49749     35
#>  2 2015-01-01 Midtjylland  56220.   1874. 29831. 24515      0
#>  3 2015-01-01 Nordjylland  27845.    704. 13895. 13246.     0
#>  4 2015-01-01 Sjælland     37140.    944. 16308. 19887.     0
#>  5 2015-01-01 Syddanmark   57255.   3104. 25686. 28466.     0
#>  6 2015-02-01 Hovedstaden 104359.   9838. 43469. 51037.    15
#>  7 2015-02-01 Midtjylland  57580.   1767. 31091. 24722.     0
#>  8 2015-02-01 Nordjylland  26508.    526. 12927. 13054.     0
#>  9 2015-02-01 Sjælland     37975.   1074. 17294. 19607.     0
#> 10 2015-02-01 Syddanmark   62129.   3576. 27572. 30981.     0
#> # … with 385 more rows
awr_aggregate(abx_sales, atc, ddd, month, region, hospital)

#> Aggregating data using the "dk" AWaRe classification
#> # A tibble: 1,580 × 8
#>    month      region      hospital             total reserve  watch access other
#>    <date>     <chr>       <chr>                <dbl>   <dbl>  <dbl>  <dbl> <dbl>
#>  1 2015-01-01 Hovedstaden Amager og Hvidovre…  9079.    273.  4241.  4565.     0
#>  2 2015-01-01 Hovedstaden Bispebjerg og Fred… 14395.    858.  6235.  7303.     0
#>  3 2015-01-01 Hovedstaden Bornholms Hospital   2152.    147.  1068.   937.     0
#>  4 2015-01-01 Hovedstaden Herlev og Gentofte… 21331.    855.  6715. 13762.     0
#>  5 2015-01-01 Hovedstaden Hospitalerne i Nor… 15470.    849.  6407.  8214.     0
#>  6 2015-01-01 Hovedstaden Rigshospitalet      36109.   6329. 14777. 14968.    35
#>  7 2015-01-01 Midtjylland Aarhus Universitet… 25140.   1229. 12239. 11672.     0
#>  8 2015-01-01 Midtjylland Hospitalsenhed Midt  8762.    170   4589.  4003.     0
#>  9 2015-01-01 Midtjylland Hospitalsenheden V… 10881.    358.  6026.  4497.     0
#> 10 2015-01-01 Midtjylland Regionshospitalet …  6134.     50   3480.  2603.     0
#> # … with 1,570 more rows
…
