abxaware • abxaware
…
awr_aggregate(abx_sales,
              atc, 
              ddd, 
              region, 
              hospital,
              month)
#> Aggregating data using the "dk" AWaRe classification
#> # A tibble: 1,580 × 8
#>    region      hospital             month       total reserve watch access other
#>    <chr>       <chr>                <date>      <dbl>   <dbl> <dbl>  <dbl> <dbl>
#>  1 Hovedstaden Amager og Hvidovre … 2015-01-01  9079.    273. 4241.  4565.     0
#>  2 Hovedstaden Amager og Hvidovre … 2015-02-01 12092.    471. 5256.  6366.     0
#>  3 Hovedstaden Amager og Hvidovre … 2015-03-01 19271.    771. 8432. 10068.     0
#>  4 Hovedstaden Amager og Hvidovre … 2015-04-01  7700     518. 3546.  3636.     0
#>  5 Hovedstaden Amager og Hvidovre … 2015-05-01 10184.    496. 4348.  5340.     0
#>  6 Hovedstaden Amager og Hvidovre … 2015-06-01 12168.    381. 5338.  6449.     0
#>  7 Hovedstaden Amager og Hvidovre … 2015-07-01 11990.    462. 4752.  6776.     0
#>  8 Hovedstaden Amager og Hvidovre … 2015-08-01 11113.    642. 4438.  6033.     0
#>  9 Hovedstaden Amager og Hvidovre … 2015-09-01 13148.    350. 4961.  7837.     0
#> 10 Hovedstaden Amager og Hvidovre … 2015-10-01 12731.    249. 5283.  7198.     0
#> # … with 1,570 more rows
…
